426.7722466710138
238.50877195157886
160.034534446961
132.04309993180408
119.17100127866853
100.03604207409649
96.19029635478823
90.34746602595476
89.83332789618818
89.79657313320622
89.79609730501514
89.7934378904105
89.59754417236039
86.97315274286026
81.3642025969275
80.38953567783375
80.17301195833912
76.52580624446708
71.3173562363739
63.73160654020104
47.79684717932466
37.32979894020748
25.537897679903857
20.70588576888885
10.195817119546923
9.192996391423398
0.0
0.0
0.0
0.0
0.0
0.0
0.0
0.0
0.0
0.0
0.0
0.0
0.0
0.0
0.0
0.0
0.0
0.0
0.0
0.0
0.0
0.0
0.0
0.0
0.0
