411.9954918847875
244.5024624178958
165.33006951812433
116.62965357105094
110.43213491796358
105.81545607085825
100.6738044912457
99.62220881038118
98.52429869661525
98.51485813093619
98.51478014281817
98.51476615818194
98.47831092046508
98.29057056497965
98.2349199256026
97.32582344472074
96.97464281066833
96.43350103083604
95.3214028377454
93.86046520252765
86.15256427814603
83.39751382805049
71.31060161195226
69.00463739742379
58.57136006940747
56.06097538062746
36.43993874579584
26.35461140777945
26.35461140777945
22.336011384491755
22.336011384491755
22.336011384491755
22.336011384491755
22.336011384491755
22.336011384491755
22.336011384491755
22.336011384491755
22.336011384491755
22.336011384491755
22.336011384491755
22.336011384491755
22.336011384491755
22.336011384491755
22.336011384491755
22.336011384491755
22.336011384491755
22.336011384491755
22.336011384491755
22.336011384491755
22.336011384491755
22.336011384491755
