409.98493754860067
239.4957275998195
163.3733540528048
141.1990848585667
114.11207943510314
104.91913749270735
103.57759796238501
102.30983100029417
102.01452922428058
101.98413975050389
101.9835659608637
101.98076706689218
101.83444334100606
101.06824329350935
100.05927910966665
98.74759739496277
98.70876581433141
98.64789665262178
98.64789665262178
90.8782940419505
87.22075771492165
80.749830461277
70.42856138730244
53.90859635317619
48.9321036961792
21.703864259885954
8.599637485714593
8.599637485714593
3.9801491371957507
0.0
0.0
0.0
0.0
0.0
0.0
0.0
0.0
0.0
0.0
0.0
0.0
0.0
0.0
0.0
0.0
0.0
0.0
0.0
0.0
0.0
0.0
