373.9835555289063
225.2460002097342
158.2220865588725
130.9013657706438
111.7269560641913
97.63191404695489
91.71148304065714
87.55640239871923
87.20125770300587
87.14537631220615
87.14373332026453
87.14085429585255
87.10233714893192
86.54443985393097
81.99681697149249
78.50701695963808
77.80221278528171
74.30573809204787
74.03397948269316
68.1075014383222
43.20974368157888
34.323246643595375
13.119908933050668
13.119908933050668
10.728829330752989
1.338440160459271
1.338440160459271
1.338440160459271
1.338440160459271
1.338440160459271
1.338440160459271
1.338440160459271
1.338440160459271
1.338440160459271
1.338440160459271
1.338440160459271
1.338440160459271
1.338440160459271
1.338440160459271
1.338440160459271
1.338440160459271
1.338440160459271
1.338440160459271
1.338440160459271
1.338440160459271
1.338440160459271
1.338440160459271
1.338440160459271
1.338440160459271
1.338440160459271
1.338440160459271
