245.14175697040454
227.80549780019817
205.63409600361405
202.12381663104765
196.69506235930237
196.69506235930237
193.43841648450206
192.56735298029037
191.55564921111971
191.54853422194532
191.54845439990507
191.54711527889208
191.4949212718769
188.9122212413846
187.95161565497415
185.99356239145277
185.4257011826408
175.13364951343232
151.5676110780193
149.87727933634494
136.11887678510078
136.11887678510078
120.04142340641936
120.04142340641936
107.64976197164596
75.70536699760342
75.70536699760342
56.0575871335264
56.0575871335264
56.0575871335264
56.0575871335264
56.0575871335264
56.0575871335264
56.0575871335264
56.0575871335264
42.523093956130644
42.523093956130644
42.523093956130644
42.523093956130644
42.523093956130644
42.523093956130644
42.523093956130644
42.523093956130644
42.523093956130644
42.523093956130644
42.523093956130644
42.523093956130644
42.523093956130644
42.523093956130644
42.523093956130644
42.523093956130644
