250.75714157697655
250.75714157697655
242.56912077334556
242.56912077334556
227.18962250305958
225.3001426985257
214.70992875075436
214.7093269614389
214.64043039873533
214.6357706194537
214.63577054665421
214.63577047456022
214.61489788728343
214.44413120807693
212.80647170473355
193.58788418422245
190.85392265926373
190.85392265926373
175.67150643914908
158.0452536553782
139.69264916428688
139.69264916428688
138.68939225320486
136.40677905764068
134.41746987239594
134.41746987239594
84.43243565101177
84.43243565101177
71.46269460694622
55.367237808813314
36.56833271938875
36.56833271938875
28.919375295284027
28.919375295284027
28.919375295284027
0.21498423531965472
0.21498423531965472
0.21498423531965472
0.21498423531965472
0.21498423531965472
0.21498423531965472
0.21498423531965472
0.21498423531965472
0.21498423531965472
0.21498423531965472
0.21498423531965472
0.21498423531965472
0.21498423531965472
0.21498423531965472
0.21498423531965472
0.21498423531965472
