237.91146474477986
203.2318858483929
203.21780098707984
198.28985603735993
196.7625467602241
187.68381257770548
181.5137248996218
179.16146272093656
178.59641196741023
178.55421839400893
178.55421730576896
178.55378949269678
178.48045699054398
177.77531654889978
176.8998887312184
170.55596477076315
170.55596477076315
158.3167215575953
155.46173150590687
124.03339789902147
99.75801656201433
81.92804997676906
72.87754786107182
52.652467249824355
43.875217103829
43.875217103829
43.875217103829
43.843198422694684
43.843198422694684
43.843198422694684
34.0711667557531
34.0711667557531
20.630051063394472
20.630051063394472
20.630051063394472
20.630051063394472
20.630051063394472
20.630051063394472
20.630051063394472
20.630051063394472
20.630051063394472
20.630051063394472
20.630051063394472
20.630051063394472
20.630051063394472
20.630051063394472
20.630051063394472
20.630051063394472
20.630051063394472
20.630051063394472
20.630051063394472
