235.6388486530844
161.86920145910145
161.86920145910145
154.25367966457185
152.93034437914054
150.34051186682547
149.80600767545687
145.40939192960766
145.2512034499099
145.2448771802833
145.24351540889396
145.2435029376414
145.24058084207613
145.13087107570036
143.60219434430817
135.32234486503108
122.10774562766814
120.72479866436015
103.08723540657608
84.52897826102758
67.09728035028641
57.33808986456924
46.586687693219844
41.56032731010536
32.604910992398224
32.604910992398224
29.910890159259786
29.910890159259786
29.910890159259786
29.910890159259786
29.910890159259786
29.910890159259786
25.888756946404243
25.888756946404243
25.888756946404243
25.888756946404243
25.888756946404243
25.888756946404243
25.888756946404243
25.888756946404243
15.838167299607957
15.838167299607957
15.838167299607957
15.838167299607957
15.838167299607957
15.838167299607957
15.838167299607957
15.838167299607957
15.838167299607957
15.838167299607957
15.838167299607957
