247.7763113091071
183.6297094959857
177.8453079493678
177.8453079493678
177.6404375026504
177.6404375026504
177.42650283745172
177.4201161897184
177.3971292043668
177.37976803748768
177.37976803748768
177.37962435977025
177.32453910950258
177.2129803650177
173.01689664473508
172.79918170690382
170.87176539103166
161.62354344102567
161.62354344102567
161.62354344102567
129.5662100382367
126.32209510857
125.30810101334289
122.06189451796301
89.33881111742922
89.33881111742922
89.14403901220356
56.71123997880446
40.716723537277666
24.795392702953183
24.795392702953183
24.795392702953183
24.795392702953183
24.795392702953183
24.795392702953183
24.795392702953183
24.795392702953183
8.426621333935522
8.426621333935522
8.426621333935522
8.426621333935522
8.426621333935522
8.426621333935522
8.426621333935522
8.426621333935522
8.426621333935522
8.426621333935522
8.426621333935522
8.426621333935522
8.426621333935522
8.426621333935522
