241.04901875796585
199.2301048301099
192.327979648975
192.327979648975
187.16592976519408
185.56588545101218
176.99514570397898
176.53108692090328
176.42360578783163
176.34070068008245
176.3379056253345
176.3377531699107
176.30078755342603
176.30078755342603
171.15191025156813
152.12693691627825
150.39468189117494
141.58512356893772
135.2506369873001
132.45673389788692
120.728861866428
120.728861866428
106.82089387499998
81.123839594393
65.08775682147022
54.93464665993733
41.192641189161336
22.92964343960508
21.585742686705185
11.716751839091351
11.677250707857919
11.677250707857919
11.677250707857919
11.677250707857919
11.677250707857919
11.677250707857919
11.677250707857919
11.677250707857919
11.677250707857919
11.677250707857919
11.677250707857919
11.677250707857919
11.677250707857919
11.677250707857919
11.677250707857919
11.677250707857919
11.677250707857919
11.677250707857919
11.677250707857919
11.677250707857919
11.677250707857919
