297.5096362018356
222.25748183854216
204.9961422953849
181.95712946826143
168.0782899322974
162.14616481053898
160.13677081699979
159.04312202443595
158.96969857089354
158.81876185477387
158.81764508555068
158.8176449042192
158.80215146191762
158.3928458616474
158.37004227008714
148.79661379766054
148.79661379766054
145.26138009027227
145.26138009027227
128.61328918739235
100.31276895710674
99.13818009851288
99.13818009851288
91.29255806889545
87.42726301863193
87.42726301863193
45.066437943546696
45.066437943546696
35.58674148350083
24.69570820979122
12.809611550108663
3.849770062013648
3.849770062013648
3.849770062013648
3.849770062013648
3.849770062013648
3.849770062013648
3.849770062013648
3.849770062013648
3.849770062013648
3.849770062013648
3.849770062013648
3.849770062013648
3.849770062013648
3.849770062013648
3.849770062013648
3.849770062013648
3.849770062013648
3.849770062013648
3.849770062013648
3.849770062013648
