237.65385580601736
180.38483148092556
168.03109578844175
167.84889655159054
167.84889655159054
165.54470821007467
165.42656977469207
162.76779215689524
161.68565328151377
161.67857073336617
161.67857073229848
161.67856245518234
161.6766845466127
161.58941196385598
159.49256859645277
157.90996374251554
149.25448348517068
149.25448348517068
138.08198354548327
131.41031209660937
102.5954153282636
102.5954153282636
101.50143486830503
101.50143486830503
86.12616631887968
85.05128081042528
21.47208774820203
21.47208774820203
21.47208774820203
21.47208774820203
15.87526363008886
15.87526363008886
6.826374145863562
6.826374145863562
6.826374145863562
3.9802134653879087
3.9802134653879087
3.9802134653879087
3.9802134653879087
3.9802134653879087
3.9802134653879087
3.9802134653879087
3.9802134653879087
3.9802134653879087
3.9802134653879087
3.9802134653879087
3.9802134653879087
3.9802134653879087
3.9802134653879087
3.9802134653879087
3.9802134653879087
