265.6449653675061
186.02996044088306
184.53178718853533
177.7229464202409
169.07633086131023
158.19234106787485
157.65491690741712
155.55524577271365
155.19652523918774
155.1964865196028
155.19627237953011
155.19552362301778
155.10523836308337
153.76084538684947
152.61015237575648
148.41266589467773
146.83411767968275
142.008916260021
128.27212953283995
97.26434342503164
86.67256905317349
68.32103863276126
51.70935280174689
33.83241806780492
33.83241806780492
33.83241806780492
7.393461802848416
7.393461802848416
7.393461802848416
3.2578011957352526
2.018098014784181
2.018098014784181
2.018098014784181
1.0185119351560257
1.0185119351560257
1.0185119351560257
1.0185119351560257
1.0185119351560257
1.0185119351560257
1.0185119351560257
1.0185119351560257
1.0185119351560257
1.0185119351560257
1.0185119351560257
1.0185119351560257
1.0185119351560257
1.0185119351560257
1.0185119351560257
0.0
0.0
0.0
