451.70188542612533
366.9690300036621
366.9690300036621
366.9690300036621
366.9690300036621
366.9690300036621
366.9690300036621
366.9690300036621
366.9690300036621
366.9690300036621
366.9690300036621
366.9690300036621
366.9690300036621
366.9690300036621
366.9690300036621
366.9690300036621
366.9690300036621
366.9690300036621
366.9690300036621
366.9690300036621
366.9690300036621
366.9690300036621
366.9690300036621
366.9690300036621
366.9690300036621
366.9690300036621
366.9690300036621
366.9690300036621
366.9690300036621
366.9690300036621
366.9690300036621
366.9690300036621
366.9690300036621
366.9690300036621
366.9690300036621
366.9690300036621
366.9690300036621
366.9690300036621
366.9690300036621
366.9690300036621
366.9690300036621
366.9690300036621
366.9690300036621
366.9690300036621
366.9690300036621
366.9690300036621
366.9690300036621
366.9690300036621
366.9690300036621
366.9690300036621
366.9690300036621
