438.927952678288
366.7109591828802
366.7109591828802
366.7109591828802
366.7109591828802
364.6155672637622
364.6155672637622
364.6155672637622
364.6155672637622
364.6155672637622
364.6155672637622
364.6155672637622
364.6155672637622
364.6155672637622
364.6155672637622
364.6155672637622
364.6155672637622
364.6155672637622
364.6155672637622
364.6155672637622
364.6155672637622
364.6155672637622
364.6155672637622
364.6155672637622
364.6155672637622
364.6155672637622
364.6155672637622
364.6155672637622
364.6155672637622
364.6155672637622
364.6155672637622
364.6155672637622
364.6155672637622
364.6155672637622
364.6155672637622
364.6155672637622
364.6155672637622
364.6155672637622
364.6155672637622
364.6155672637622
364.6155672637622
364.6155672637622
364.6155672637622
364.6155672637622
364.6155672637622
364.6155672637622
364.6155672637622
364.6155672637622
364.6155672637622
364.6155672637622
364.6155672637622
