416.53314283561747
397.865075715569
397.865075715569
397.865075715569
397.865075715569
397.865075715569
397.865075715569
397.865075715569
397.865075715569
397.865075715569
397.865075715569
397.865075715569
397.865075715569
397.6087343425003
397.6087343425003
392.3825118046797
392.3825118046797
392.3825118046797
392.3825118046797
392.3825118046797
392.3825118046797
392.3825118046797
392.3825118046797
392.3825118046797
380.81225638286264
380.81225638286264
380.81225638286264
380.81225638286264
380.81225638286264
380.81225638286264
380.81225638286264
380.81225638286264
380.81225638286264
380.81225638286264
380.81225638286264
380.81225638286264
380.81225638286264
380.81225638286264
380.81225638286264
380.81225638286264
380.81225638286264
380.81225638286264
380.81225638286264
380.81225638286264
380.81225638286264
380.81225638286264
380.81225638286264
380.81225638286264
380.81225638286264
380.81225638286264
380.81225638286264
