387.1783571921524
351.37333205959106
351.37333205959106
351.37333205959106
351.37333205959106
351.37333205959106
351.37333205959106
351.37333205959106
350.3225067060852
350.3225067060852
350.3225067060852
350.3225067060852
350.3225067060852
350.3225067060852
350.3225067060852
350.3225067060852
350.3225067060852
350.3225067060852
350.3225067060852
246.63785712751036
246.63785712751036
246.63785712751036
246.63785712751036
246.63785712751036
246.63785712751036
246.63785712751036
246.63785712751036
246.63785712751036
246.63785712751036
246.63785712751036
246.63785712751036
246.63785712751036
246.63785712751036
246.63785712751036
246.63785712751036
246.63785712751036
246.63785712751036
246.63785712751036
246.63785712751036
246.63785712751036
246.63785712751036
246.63785712751036
246.63785712751036
246.63785712751036
246.63785712751036
246.63785712751036
246.63785712751036
246.63785712751036
246.63785712751036
246.63785712751036
246.63785712751036
