444.0769528507955
409.52928891708854
409.52928891708854
409.52928891708854
409.52928891708854
409.52928891708854
409.52928891708854
409.52928891708854
409.52928891708854
409.52928891708854
409.52928891708854
409.52928891708854
409.52928891708854
409.52928891708854
409.52928891708854
409.52928891708854
409.52928891708854
409.52928891708854
409.52928891708854
409.52928891708854
409.52928891708854
409.52928891708854
409.52928891708854
409.52928891708854
409.52928891708854
409.52928891708854
409.52928891708854
409.52928891708854
409.52928891708854
409.52928891708854
409.52928891708854
409.52928891708854
409.52928891708854
409.52928891708854
409.52928891708854
409.52928891708854
409.52928891708854
409.52928891708854
409.52928891708854
409.52928891708854
409.52928891708854
409.52928891708854
409.52928891708854
409.52928891708854
409.52928891708854
409.52928891708854
409.52928891708854
409.52928891708854
409.52928891708854
409.52928891708854
409.52928891708854
