430.105616139321
352.8954426843438
352.8954426843438
347.07444433662965
347.07444433662965
347.07444433662965
347.07444433662965
347.07444433662965
347.07444433662965
347.07444433662965
347.07444433662965
347.07444433662965
347.07444433662965
347.07444433662965
347.07444433662965
347.07444433662965
347.07444433662965
347.07444433662965
347.07444433662965
347.07444433662965
347.07444433662965
347.07444433662965
347.07444433662965
347.07444433662965
347.07444433662965
347.07444433662965
347.07444433662965
347.07444433662965
347.07444433662965
347.07444433662965
347.07444433662965
347.07444433662965
347.07444433662965
347.07444433662965
347.07444433662965
347.07444433662965
347.07444433662965
347.07444433662965
347.07444433662965
347.07444433662965
347.07444433662965
347.07444433662965
347.07444433662965
347.07444433662965
347.07444433662965
347.07444433662965
347.07444433662965
347.07444433662965
347.07444433662965
347.07444433662965
347.07444433662965
