459.1756639600395
299.66419483163867
247.47143564867523
214.0036676306536
158.50557102987995
148.59896990937676
144.05963849722718
140.34595710070843
128.1632779847977
123.15552691298173
123.15552691298173
123.15552691298173
123.15552691298173
123.15552691298173
123.15552691298173
123.15552691298173
123.15552691298173
123.15552691298173
121.22079480051283
116.37035074211491
116.37035074211491
116.37035074211491
116.37035074211491
116.37035074211491
112.05906836567888
112.05906836567888
100.92433339920504
100.92433339920504
100.92433339920504
100.92433339920504
100.92433339920504
100.92433339920504
100.92433339920504
100.92433339920504
100.46411709236148
100.46411709236148
99.35499065578918
99.35499065578918
99.35499065578918
95.23965324482583
95.23965324482583
95.23965324482583
95.23965324482583
84.89955021010744
84.89955021010744
84.78587546604494
84.78587546604494
84.78587546604494
84.78587546604494
84.78587546604494
84.78587546604494
