419.6050685534118
280.95697610182117
231.72289551267966
225.89592304616573
216.70676453275888
173.213626250301
173.213626250301
173.213626250301
173.213626250301
173.213626250301
173.213626250301
167.02598648381158
147.24068189910116
147.24068189910116
147.24068189910116
147.24068189910116
147.24068189910116
147.24068189910116
147.24068189910116
147.24068189910116
147.24068189910116
147.24068189910116
147.24068189910116
147.24068189910116
147.24068189910116
147.24068189910116
147.24068189910116
147.24068189910116
147.24068189910116
147.24068189910116
147.24068189910116
147.24068189910116
147.24068189910116
147.24068189910116
147.24068189910116
147.24068189910116
147.24068189910116
147.24068189910116
147.24068189910116
140.8139490999694
140.8139490999694
140.8139490999694
140.8139490999694
140.8139490999694
140.8139490999694
140.8139490999694
140.8139490999694
140.8139490999694
140.8139490999694
140.8139490999694
140.8139490999694
