384.85944387796485
313.6991414474356
274.0421466097807
257.59875823316855
220.31977964115188
220.31977964115188
220.31977964115188
220.31977964115188
203.29347496016422
203.29347496016422
203.29347496016422
203.29347496016422
198.6307824226653
198.6307824226653
198.6307824226653
198.6307824226653
198.6307824226653
198.6307824226653
198.6307824226653
183.77627682698636
180.25158121368483
180.25158121368483
133.94456339291995
133.94456339291995
133.94456339291995
133.94456339291995
133.94456339291995
125.52798208473286
125.52798208473286
125.52798208473286
125.52798208473286
125.52798208473286
125.52798208473286
125.52798208473286
125.52798208473286
125.52798208473286
125.52798208473286
125.52798208473286
125.52798208473286
125.52798208473286
125.52798208473286
125.52798208473286
125.52798208473286
123.72246526847518
123.72246526847518
123.72246526847518
123.72246526847518
123.72246526847518
123.72246526847518
123.72246526847518
123.72246526847518
