410.6254086674336
266.06023732675413
228.06721798297508
218.11554063360035
201.7484602750073
201.7484602750073
201.20768850228285
201.20768850228285
201.20768850228285
184.96696049139237
181.81771101580833
181.81771101580833
181.81771101580833
181.81771101580833
181.81771101580833
181.81771101580833
176.19738557601445
176.19738557601445
176.19738557601445
176.19738557601445
176.19738557601445
176.19738557601445
176.19738557601445
176.19738557601445
176.19738557601445
176.19738557601445
176.19738557601445
176.19738557601445
176.19738557601445
176.19738557601445
176.19738557601445
176.19738557601445
176.19738557601445
176.19738557601445
176.19738557601445
176.19738557601445
176.19738557601445
176.19738557601445
176.19738557601445
157.7359235372901
157.7359235372901
157.7359235372901
157.7359235372901
157.7359235372901
157.7359235372901
157.7359235372901
157.7359235372901
157.7359235372901
157.7359235372901
157.7359235372901
149.78104232501266
