457.2072063036913
364.8922489005071
333.61560225894897
328.88017104161133
328.88017104161133
328.88017104161133
328.88017104161133
328.88017104161133
328.88017104161133
328.88017104161133
328.88017104161133
328.88017104161133
328.88017104161133
328.88017104161133
328.88017104161133
328.88017104161133
328.88017104161133
328.88017104161133
328.88017104161133
328.88017104161133
328.88017104161133
328.88017104161133
328.88017104161133
328.88017104161133
328.88017104161133
328.88017104161133
328.88017104161133
328.88017104161133
328.88017104161133
328.88017104161133
328.88017104161133
328.88017104161133
328.88017104161133
328.88017104161133
328.88017104161133
328.88017104161133
328.88017104161133
328.88017104161133
328.88017104161133
328.88017104161133
328.88017104161133
328.88017104161133
328.88017104161133
328.88017104161133
328.88017104161133
328.88017104161133
328.88017104161133
328.88017104161133
328.88017104161133
328.88017104161133
328.88017104161133
