433.9316968285704
303.15966450624325
251.1602711028487
209.730775111306
191.7945500647713
172.26301793746197
172.26301793746197
172.26301793746197
172.26301793746197
172.26301793746197
164.75188598257472
164.75188598257472
164.75188598257472
164.75188598257472
164.75188598257472
164.75188598257472
164.75188598257472
164.75188598257472
164.75188598257472
164.75188598257472
164.75188598257472
164.75188598257472
164.75188598257472
164.75188598257472
164.75188598257472
164.75188598257472
164.75188598257472
164.75188598257472
164.75188598257472
164.75188598257472
164.75188598257472
164.75188598257472
159.95485316601057
159.95485316601057
159.95485316601057
159.95485316601057
159.95485316601057
142.06011520862035
142.06011520862035
142.06011520862035
142.06011520862035
142.06011520862035
142.06011520862035
142.06011520862035
142.06011520862035
142.06011520862035
131.8925824994289
131.8925824994289
131.8925824994289
131.8925824994289
131.6347585175815
