424.3465048232699
318.63424244396407
215.25801801113437
194.68640637598318
194.68640637598318
183.32509597388798
183.32509597388798
174.568359176556
162.18036986207989
162.18036986207989
162.18036986207989
162.18036986207989
158.78971354148814
158.78971354148814
158.78971354148814
158.78971354148814
158.78971354148814
158.78971354148814
158.78971354148814
158.78971354148814
158.78971354148814
158.78971354148814
158.78971354148814
158.78971354148814
158.78971354148814
158.78971354148814
158.78971354148814
158.78971354148814
158.78971354148814
158.78971354148814
158.78971354148814
158.78971354148814
158.78971354148814
158.78971354148814
158.37421647048333
158.37421647048333
158.37421647048333
158.37421647048333
158.37421647048333
158.37421647048333
158.37421647048333
158.37421647048333
158.37421647048333
158.37421647048333
158.37421647048333
158.37421647048333
158.37421647048333
158.37421647048333
158.37421647048333
158.37421647048333
158.37421647048333
