397.4405084004512
376.7066527159507
342.0219232502552
342.0219232502552
342.0219232502552
335.99456350596876
335.99456350596876
335.99456350596876
335.99456350596876
335.99456350596876
335.99456350596876
335.99456350596876
335.99456350596876
335.99456350596876
335.99456350596876
335.99456350596876
335.99456350596876
335.99456350596876
335.99456350596876
335.99456350596876
335.99456350596876
335.99456350596876
335.99456350596876
335.99456350596876
335.99456350596876
335.99456350596876
335.99456350596876
335.99456350596876
335.99456350596876
335.99456350596876
335.99456350596876
328.2103302678286
328.2103302678286
328.2103302678286
320.887901305309
320.887901305309
320.887901305309
320.887901305309
320.887901305309
320.887901305309
320.887901305309
320.887901305309
320.887901305309
320.887901305309
320.887901305309
320.887901305309
293.2831024281778
293.2831024281778
293.2831024281778
293.2831024281778
293.2831024281778
