Seq length:    50
Duration [s]:  600
SDLS depth:    1
=======================
Found power:   241
Min power:     153
=======================
Iterations:    60867747
Total flips:   278079074
Avg flips:     4.568578
