Seq length:    50
Duration [s]:  600
SDLS depth:    1
=======================
Found power:   233
Min power:     153
=======================
Iterations:    62574937
Total flips:   285876892
Avg flips:     4.568553
