Seq length:    50
Duration [s]:  600
SDLS depth:    3
=======================
Found power:   201
Min power:     153
=======================
Iterations:    16691645
Total flips:   217586126
Avg flips:     13.035631
