Seq length:    50
Duration [s]:  600
SDLS depth:    1
=======================
Found power:   225
Min power:     153
=======================
Iterations:    57931261
Total flips:   264675319
Avg flips:     4.568782
