Seq length:    50
Duration [s]:  600
SDLS depth:    7
=======================
Found power:   153
Min power:     153
=======================
Iterations:    8517056
Total flips:   248743668
Avg flips:     29.205358
