Seq length:    60
Duration [s]:  600
SDLS depth:    20
=======================
Found power:   226
Min power:     218
=======================
Iterations:    2205241
Total flips:   188363113
Avg flips:     85.416112
