Seq length:    60
Duration [s]:  600
SDLS depth:    20
=======================
Found power:   234
Min power:     218
=======================
Iterations:    2137922
Total flips:   182603868
Avg flips:     85.411848
