Seq length:    60
Duration [s]:  600
SDLS depth:    3
=======================
Found power:   346
Min power:     218
=======================
Iterations:    12443380
Total flips:   171375240
Avg flips:     13.772403
